2017-03-09 10:39:34 ::::: Creating render object... 
2017-03-09 10:39:34 ::::: Creating core subobjects for admin part... /home/victor/webServer/victor-system/www/admin/
2017-03-09 10:39:34 ::::: Creating page object... 
2017-03-09 10:39:34 ::::: access to DB for /admin/?dir=settings&component=system
2017-03-09 10:39:34 ::::: Initialization of admin part... 
2017-03-09 10:39:34 ::::: Start of creating response for /home/victor/webServer/victor-system/www/js/jquery-1.11.3.min.js
2017-03-09 10:39:34 ::::: Start of creating response for /home/victor/webServer/victor-system/www/admin/js/ai.js
2017-03-09 10:39:34 ::::: Start of creating response for /home/victor/webServer/victor-system/www/admin/css/bootstrap.min.css
2017-03-09 10:39:34 ::::: Start of creating response for /home/victor/webServer/victor-system/www/js/bootstrap.min.js
2017-03-09 10:39:34 ::::: Start of creating response for /home/victor/webServer/victor-system/www/admin/css/styles.css
2017-03-09 10:39:34 ::::: Start of creating response for /home/victor/webServer/victor-system/www/js/ui.js
2017-03-09 10:39:42 ::::: Start of creating response for /home/victor/webServer/victor-system/www/admin/
2017-03-09 10:39:42 ::::: Getting admin part... /home/victor/webServer/victor-system/www/admin/
2017-03-09 10:39:42 ::::: Creating users object... 
2017-03-09 10:39:42 ::::: access to DB for /admin/?dir=settings&component=system
2017-03-09 10:39:42 ::::: Creating render object... 
2017-03-09 10:39:42 ::::: Creating core subobjects for admin part... /home/victor/webServer/victor-system/www/admin/
2017-03-09 10:39:42 ::::: Creating page object... 
2017-03-09 10:39:42 ::::: access to DB for /admin/?dir=settings&component=system
2017-03-09 10:39:42 ::::: Initialization of admin part... 
2017-03-09 10:39:42 ::::: Start of creating response for /home/victor/webServer/victor-system/www/js/bootstrap.min.js
2017-03-09 10:39:42 ::::: Start of creating response for /home/victor/webServer/victor-system/www/admin/css/bootstrap.min.css
2017-03-09 10:39:42 ::::: Start of creating response for /home/victor/webServer/victor-system/www/admin/css/styles.css
2017-03-09 10:39:42 ::::: Start of creating response for /home/victor/webServer/victor-system/www/admin/js/ai.js
2017-03-09 10:39:42 ::::: Start of creating response for /home/victor/webServer/victor-system/www/js/ui.js
2017-03-09 10:39:42 ::::: Start of creating response for /home/victor/webServer/victor-system/www/js/jquery-1.11.3.min.js
2017-03-09 10:40:09 ::::: Start of creating response for /home/victor/webServer/victor-system/www/admin/
2017-03-09 10:40:09 ::::: Getting admin part... /home/victor/webServer/victor-system/www/admin/
2017-03-09 10:40:09 ::::: Creating users object... 
2017-03-09 10:40:09 ::::: access to DB for /admin/?dir=settings&component=system
2017-03-09 10:40:09 ::::: Creating render object... 
2017-03-09 10:40:09 ::::: Creating core subobjects for admin part... /home/victor/webServer/victor-system/www/admin/
2017-03-09 10:40:09 ::::: Creating page object... 
2017-03-09 10:40:09 ::::: access to DB for /admin/?dir=settings&component=system
2017-03-09 10:40:09 ::::: Initialization of admin part... 
2017-03-09 10:40:09 ::::: Start of creating response for /home/victor/webServer/victor-system/www/js/jquery-1.11.3.min.js
2017-03-09 10:40:09 ::::: Start of creating response for /home/victor/webServer/victor-system/www/admin/css/bootstrap.min.css
2017-03-09 10:40:09 ::::: Start of creating response for /home/victor/webServer/victor-system/www/admin/js/ai.js
2017-03-09 10:40:09 ::::: Start of creating response for /home/victor/webServer/victor-system/www/js/ui.js
2017-03-09 10:40:09 ::::: Start of creating response for /home/victor/webServer/victor-system/www/admin/css/styles.css
2017-03-09 10:40:09 ::::: Start of creating response for /home/victor/webServer/victor-system/www/js/bootstrap.min.js
2017-03-09 10:40:36 ::::: Start of creating response for /home/victor/webServer/victor-system/www/admin/
2017-03-09 10:40:36 ::::: Getting admin part... /home/victor/webServer/victor-system/www/admin/
2017-03-09 10:40:36 ::::: Creating users object... 
2017-03-09 10:40:36 ::::: access to DB for /admin/?dir=settings&component=system
2017-03-09 10:40:36 ::::: Creating render object... 
2017-03-09 10:40:36 ::::: Creating core subobjects for admin part... /home/victor/webServer/victor-system/www/admin/
2017-03-09 10:40:36 ::::: Creating page object... 
2017-03-09 10:40:36 ::::: access to DB for /admin/?dir=settings&component=system
2017-03-09 10:40:36 ::::: Initialization of admin part... 
2017-03-09 10:40:36 ::::: Start of creating response for /home/victor/webServer/victor-system/www/js/jquery-1.11.3.min.js
2017-03-09 10:40:36 ::::: Start of creating response for /home/victor/webServer/victor-system/www/admin/css/bootstrap.min.css
2017-03-09 10:40:36 ::::: Start of creating response for /home/victor/webServer/victor-system/www/js/ui.js
2017-03-09 10:40:36 ::::: Start of creating response for /home/victor/webServer/victor-system/www/js/bootstrap.min.js
2017-03-09 10:40:36 ::::: Start of creating response for /home/victor/webServer/victor-system/www/admin/css/styles.css
2017-03-09 10:40:36 ::::: Start of creating response for /home/victor/webServer/victor-system/www/admin/js/ai.js
2017-03-09 10:40:45 ::::: Start of creating response for /home/victor/webServer/victor-system/www/admin/
2017-03-09 10:40:45 ::::: Getting admin part... /home/victor/webServer/victor-system/www/admin/
2017-03-09 10:40:45 ::::: Creating users object... 
2017-03-09 10:40:46 ::::: access to DB for /admin/?dir=settings&component=system
2017-03-09 10:40:46 ::::: Creating render object... 
2017-03-09 10:40:46 ::::: Creating core subobjects for admin part... /home/victor/webServer/victor-system/www/admin/
2017-03-09 10:40:46 ::::: Creating page object... 
2017-03-09 10:40:46 ::::: access to DB for /admin/?dir=settings&component=system
2017-03-09 10:40:46 ::::: Initialization of admin part... 
2017-03-09 10:40:46 ::::: Start of creating response for /home/victor/webServer/victor-system/www/js/jquery-1.11.3.min.js
2017-03-09 10:40:46 ::::: Start of creating response for /home/victor/webServer/victor-system/www/admin/css/styles.css
2017-03-09 10:40:46 ::::: Start of creating response for /home/victor/webServer/victor-system/www/js/bootstrap.min.js
2017-03-09 10:40:46 ::::: Start of creating response for /home/victor/webServer/victor-system/www/admin/js/ai.js
2017-03-09 10:40:46 ::::: Start of creating response for /home/victor/webServer/victor-system/www/js/ui.js
2017-03-09 10:40:46 ::::: Start of creating response for /home/victor/webServer/victor-system/www/admin/css/bootstrap.min.css
2017-03-09 10:40:51 ::::: Start of creating response for /home/victor/webServer/victor-system/www/admin/
2017-03-09 10:40:51 ::::: Getting admin part... /home/victor/webServer/victor-system/www/admin/
2017-03-09 10:40:51 ::::: Creating users object... 
2017-03-09 10:40:51 ::::: access to DB for /admin/?dir=settings&component=system
2017-03-09 10:40:51 ::::: Creating render object... 
2017-03-09 10:40:51 ::::: Creating core subobjects for admin part... /home/victor/webServer/victor-system/www/admin/
2017-03-09 10:40:51 ::::: Creating page object... 
2017-03-09 10:40:51 ::::: access to DB for /admin/?dir=settings&component=system
2017-03-09 10:40:51 ::::: Initialization of admin part... 
2017-03-09 10:40:51 ::::: Start of creating response for /home/victor/webServer/victor-system/www/js/jquery-1.11.3.min.js
2017-03-09 10:40:51 ::::: Start of creating response for /home/victor/webServer/victor-system/www/admin/js/ai.js
2017-03-09 10:40:51 ::::: Start of creating response for /home/victor/webServer/victor-system/www/js/bootstrap.min.js
2017-03-09 10:40:51 ::::: Start of creating response for /home/victor/webServer/victor-system/www/admin/css/bootstrap.min.css
2017-03-09 10:40:51 ::::: Start of creating response for /home/victor/webServer/victor-system/www/js/ui.js
2017-03-09 10:40:51 ::::: Start of creating response for /home/victor/webServer/victor-system/www/admin/css/styles.css
2017-03-09 10:43:02 ::::: Start of creating response for /home/victor/webServer/victor-system/www/admin/
2017-03-09 10:43:02 ::::: Getting admin part... /home/victor/webServer/victor-system/www/admin/
2017-03-09 10:43:02 ::::: Creating users object... 
2017-03-09 10:43:02 ::::: access to DB for /admin/?dir=settings&component=system
2017-03-09 10:43:02 ::::: Creating render object... 
2017-03-09 10:43:02 ::::: Creating core subobjects for admin part... /home/victor/webServer/victor-system/www/admin/
2017-03-09 10:43:02 ::::: Creating page object... 
2017-03-09 10:43:02 ::::: access to DB for /admin/?dir=settings&component=system
2017-03-09 10:43:02 ::::: Initialization of admin part... 
2017-03-09 10:43:02 ::::: Start of creating response for /home/victor/webServer/victor-system/www/js/jquery-1.11.3.min.js
2017-03-09 10:43:02 ::::: Start of creating response for /home/victor/webServer/victor-system/www/js/bootstrap.min.js
2017-03-09 10:43:02 ::::: Start of creating response for /home/victor/webServer/victor-system/www/admin/css/bootstrap.min.css
2017-03-09 10:43:02 ::::: Start of creating response for /home/victor/webServer/victor-system/www/admin/css/styles.css
2017-03-09 10:43:02 ::::: Start of creating response for /home/victor/webServer/victor-system/www/js/ui.js
2017-03-09 10:43:02 ::::: Start of creating response for /home/victor/webServer/victor-system/www/admin/js/ai.js
